%YAML 1.1
%TAG !u! tag:unity3d.com,2011:
--- !u!114 &11400000
MonoBehaviour:
  m_ObjectHideFlags: 0
  m_CorrespondingSourceObject: {fileID: 0}
  m_PrefabInstance: {fileID: 0}
  m_PrefabAsset: {fileID: 0}
  m_GameObject: {fileID: 0}
  m_Enabled: 1
  m_EditorHideFlags: 0
  m_Script: {fileID: 11500000, guid: 97841064e27c442f3b45f0e2079b716c, type: 3}
  m_Name: 11_diamond
  m_EditorClassIdentifier: 
  type: 1
  particle: {fileID: 1978309707650864, guid: 0d5b2acf0cd20417c80c6715503f101f, type: 3}
  animationData:
    frames:
    - {fileID: 21300000, guid: c5353a4556d918e4ca590cb51dc3b6fb, type: 3}
    - {fileID: 21300000, guid: a31feb81c7096dc4da84759c7a1d082a, type: 3}
    - {fileID: 21300000, guid: f8c6281ee651e9c4c84a10a1fdf12c0e, type: 3}
    - {fileID: 21300000, guid: 8921a09915fe48d4f88115773354dbd6, type: 3}
    - {fileID: 21300000, guid: 1099974cf26ae2a4aa38fca6c0896c56, type: 3}
    - {fileID: 21300000, guid: bc00e288ad976504d935c2a7b6d14f8e, type: 3}
    - {fileID: 21300000, guid: 37207d9986a56214083dd6897d92421a, type: 3}
    - {fileID: 21300000, guid: 6b73a9c5ce16d9f469e900d59c23091e, type: 3}
    - {fileID: 21300000, guid: 056afbe83f2cc224da890a9f58431f20, type: 3}
    - {fileID: 21300000, guid: 6c481c0e534e0c94d9e033c27f6317d0, type: 3}
    - {fileID: 21300000, guid: 4d8a9ab37d862ab46aa783733667c708, type: 3}
    - {fileID: 21300000, guid: a809dcb571ef61743bc15291cf76bd7c, type: 3}
    - {fileID: 21300000, guid: e4b7096427bbd90458d7a63070cf1150, type: 3}
    - {fileID: 21300000, guid: af289bb2d9b73114e90b8ec8792a9251, type: 3}
    - {fileID: 21300000, guid: c325adfe49f1b84428917e68ae1babec, type: 3}
    - {fileID: 21300000, guid: 6073828aef3bacf42ba4606b6fc67dd3, type: 3}
    - {fileID: 21300000, guid: 53d93a488508fa04b963ac31d497896d, type: 3}
    - {fileID: 21300000, guid: cc6599cf109af2841ba1cc150de7b0e0, type: 3}
    - {fileID: 21300000, guid: 18bb945784521c8449b3147650a9009c, type: 3}
    - {fileID: 21300000, guid: 7927d06a9c5cca440b1e53a3868aac6e, type: 3}
    - {fileID: 21300000, guid: 665f5443293b8dc4aab5596df5f92fc1, type: 3}
    - {fileID: 21300000, guid: a880b86b87acef145a1a2fa617c69804, type: 3}
    - {fileID: 21300000, guid: 0faac4c63969afc4d8461a15315aa9bc, type: 3}
    - {fileID: 21300000, guid: d4f194e5bc20dce40b200789cdb69fc6, type: 3}
    - {fileID: 21300000, guid: 9a30ceca84421cb4ab54dc4663251213, type: 3}
    - {fileID: 21300000, guid: f1a435af1cfe2b74ba03c76636181b5a, type: 3}
    - {fileID: 21300000, guid: 18492cb57f5add34083c90f38397c94a, type: 3}
    - {fileID: 21300000, guid: 914a4ca1ee6c14e4fb8291d9d3aa81fd, type: 3}
    - {fileID: 21300000, guid: 2da660b3ab60cbb4f9117084aad4848a, type: 3}
    - {fileID: 21300000, guid: 7853893540633dd4aa0c5591a6c88d99, type: 3}
    - {fileID: 21300000, guid: 5f096112e5996bd47a3b76bf9ce6a623, type: 3}
    - {fileID: 21300000, guid: 603db4f65f2ef5046b9311ed2e72c5b9, type: 3}
    - {fileID: 21300000, guid: 98e394f3ed098e547a2447ff86201a47, type: 3}
    - {fileID: 21300000, guid: f30dd38ba999a9744878b017d4253fa6, type: 3}
    - {fileID: 21300000, guid: 019ff00336ff5b845a55d2c016f9dd2e, type: 3}
    - {fileID: 21300000, guid: 9bb89dc1feb44db4888de8cfce3968df, type: 3}
    - {fileID: 21300000, guid: 1c35d4303c34ee243bbbb2b44a7c634b, type: 3}
    - {fileID: 21300000, guid: 195b1b197e9f01b46ab56eee423f466b, type: 3}
    - {fileID: 21300000, guid: 4c2ee9286d68ecd428d7d4bd24b4aec2, type: 3}
    - {fileID: 21300000, guid: 79154c2a193af1444921b7a4aeeddee2, type: 3}
    - {fileID: 21300000, guid: 4590238c3abd5394491fbc20035d7205, type: 3}
    - {fileID: 21300000, guid: 0d6b1451d58efd74c984275fe1f49a02, type: 3}
    - {fileID: 21300000, guid: 6113b02231514c0408291d62fc342b79, type: 3}
    - {fileID: 21300000, guid: a0250d77e3ef1c84b8383645a0a0063c, type: 3}
    duration: 1
    delay: 0
  sprite: {fileID: 21300000, guid: c5353a4556d918e4ca590cb51dc3b6fb, type: 3}
  rule:
    reward:
    - 0
    - 20
    - 200
    - 1000
    - 5000
    substitutesForWild: 1
