%YAML 1.1
%TAG !u! tag:unity3d.com,2011:
--- !u!114 &11400000
MonoBehaviour:
  m_ObjectHideFlags: 0
  m_CorrespondingSourceObject: {fileID: 0}
  m_PrefabInstance: {fileID: 0}
  m_PrefabAsset: {fileID: 0}
  m_GameObject: {fileID: 0}
  m_Enabled: 1
  m_EditorHideFlags: 0
  m_Script: {fileID: 11500000, guid: 97841064e27c442f3b45f0e2079b716c, type: 3}
  m_Name: 8_anchor
  m_EditorClassIdentifier: 
  type: 10
  particle: {fileID: 1978309707650864, guid: 0d5b2acf0cd20417c80c6715503f101f, type: 3}
  animationData:
    frames:
    - {fileID: 21300000, guid: c68b9ef28f999db449bd430f97a41dab, type: 3}
    - {fileID: 21300000, guid: 6eee6bfe4faa8a24bb40117df1b2300c, type: 3}
    - {fileID: 21300000, guid: 9f8a0fa916dac05448bc5646a4486f87, type: 3}
    - {fileID: 21300000, guid: 940fd8959f08b7a4a8ee4c8a718cd200, type: 3}
    - {fileID: 21300000, guid: aaf4402806bc8c24a9ffb58348d33565, type: 3}
    - {fileID: 21300000, guid: 951bce567ae24084fb4b5d8702885920, type: 3}
    - {fileID: 21300000, guid: 32250fae99d935b4688b217d5bc16f2a, type: 3}
    - {fileID: 21300000, guid: 9191134677257ed4fa4668d7c951a6db, type: 3}
    - {fileID: 21300000, guid: c1a16b33fca68e74c8696653838225e7, type: 3}
    - {fileID: 21300000, guid: d4c7d22defa61e54dafef7947485a5c2, type: 3}
    - {fileID: 21300000, guid: f5a1abe472c3d5a44afd922716aa5486, type: 3}
    - {fileID: 21300000, guid: 832f7c7e1d2886c4fabf37612196b949, type: 3}
    - {fileID: 21300000, guid: 091fe2bea9ebccc4582c25a4e1cc292c, type: 3}
    - {fileID: 21300000, guid: 3e1324e4c99a64047b14b8b92f1341aa, type: 3}
    - {fileID: 21300000, guid: 88050a08d02033145a74fff9686de588, type: 3}
    - {fileID: 21300000, guid: 12fac752f4183844dbe7399b74bff8a7, type: 3}
    - {fileID: 21300000, guid: e4d406d5200c28e40a996eae55626573, type: 3}
    - {fileID: 21300000, guid: a5b537ab4512795469ecd25edec8ee26, type: 3}
    - {fileID: 21300000, guid: ecb65671f1c59584ba18c86082ce76ef, type: 3}
    - {fileID: 21300000, guid: 4ececede17bc4b4499145a33694bc567, type: 3}
    - {fileID: 21300000, guid: f713e8c8fa955f14caf9c9f244e17377, type: 3}
    - {fileID: 21300000, guid: a3738f3356f0c75459fa9d35224bd2e6, type: 3}
    - {fileID: 21300000, guid: ba442e7016b3b414fb149384a8e39a68, type: 3}
    - {fileID: 21300000, guid: 52911658ae2b60748bdcd45269726d22, type: 3}
    - {fileID: 21300000, guid: 5f9e60fed8271a34ea07629754b30e02, type: 3}
    - {fileID: 21300000, guid: ca2ccb677b01c634d8729c97550e3c60, type: 3}
    - {fileID: 21300000, guid: 16a8550bb271f294194041b27027d8b1, type: 3}
    - {fileID: 21300000, guid: 0d5c2c86355ef4a49b9481715701f967, type: 3}
    - {fileID: 21300000, guid: fb8d44247998559479c0a4961f405828, type: 3}
    - {fileID: 21300000, guid: ae50ae172ca57094a9d7f17b7c138a72, type: 3}
    - {fileID: 21300000, guid: fe65e4c930269e2449df56f4d5090734, type: 3}
    - {fileID: 21300000, guid: f9ef3406181c6c54d87b6376d4cae401, type: 3}
    - {fileID: 21300000, guid: 9d6fd7fd601c32c45843c975df625138, type: 3}
    - {fileID: 21300000, guid: d5974a84ec02533458e89414215f0727, type: 3}
    - {fileID: 21300000, guid: 78f8955d8cc24ed4781236b1830002a3, type: 3}
    - {fileID: 21300000, guid: a3d25414c5d42d8459d8e5d9e83e63eb, type: 3}
    - {fileID: 21300000, guid: 9d6eef33d59c2274d8058d730597382c, type: 3}
    - {fileID: 21300000, guid: bb2f0cb17cc3326449a21aa434c9b083, type: 3}
    - {fileID: 21300000, guid: 3446964e1ec2cba4386a3dd63918db69, type: 3}
    - {fileID: 21300000, guid: f5a315fedcf879f4e9c267b8b5ff416f, type: 3}
    - {fileID: 21300000, guid: 581f3c25fb62f7f49871e9554bf8efd7, type: 3}
    - {fileID: 21300000, guid: 9091ac536e4d27d41a2a65a02a4d2c17, type: 3}
    - {fileID: 21300000, guid: f5b727f24cfb52a459a1802db1fbccbd, type: 3}
    - {fileID: 21300000, guid: 067c8b14c9cf8ff4ca7687b1920857be, type: 3}
    duration: 1
    delay: 0
  sprite: {fileID: 21300000, guid: c68b9ef28f999db449bd430f97a41dab, type: 3}
  rule:
    reward:
    - 0
    - 10
    - 30
    - 300
    - 2000
    substitutesForWild: 1
